{
  "routes": {
    "url": "routes",
    "methods": ["POST"],
    "description": "Get list of the available API methods",
    "auth": true,
    "payload": null
  },
  "artist": {
    "url": "artist",
    "methods": ["POST"],
    "description": "Get artist info by artist name",
    "auth": true,
    "payload": {
      "artist": "String"
    }
  },
  "album": {
    "url": "album",
    "methods": ["POST"],
    "description": "Get album info by artist name and album slug",
    "auth": true,
    "payload": {
      "artist": "String",
      "album": "String"
    }
  },
  "track": {
    "url": "track",
    "methods": ["POST"],
    "description": "Get track info by artist name and track slug",
    "auth": true,
    "payload": {
      "artist": "String",
      "track": "String"
    }
  },
  "apikey": {
    "url": "apikey",
    "methods": ["POST"],
    "description": "Get API key",
    "auth": false,
    "payload": {
      "email": "String"
    }
  },
  "search": {
    "url": "search",
    "methods": ["POST"],
    "description": "Search Bandcamp",
    "auth": true,
    "payload": {
      "q": "String",
      "page": "Number"
    }
  },
  "flush": {
    "url": "flush",
    "methods": ["GET"],
    "description": "Flush cached responses",
    "auth": false,
    "payload": null
  },
  "player": {
    "url": "player",
    "methods": ["GET"],
    "description": "Get album streaming data, ready for enqueueing in a custom HTML5 player",
    "auth": false,
    "payload": null
  }
}